;ISA_NO,ISA_DESC,HSE_REGION_NO
0,n.a.,0
1,Dublin South East/ Wicklow,1
2,Dublin South Central,1
3,Dublin South West/Kildare,1
4,Midlands,1
5,Cavan/Monaghan,2
6,Dublin North,2
7,Dublin City North,2
8,Louth/ Meath,2
9,Cork,3
10,Kerry,3
11,Other,3
12,Paediatrics,1
13,Donegal,4
14,Galway/Roscommon,4
15,Mayo,4
16,Mid West,4
17,Sligo-Leitrim/West Cavan,4
18,Waterford/ Wexford,3
19,Carlow/ Kilkenny/ South Tipperary,3
20,National,5
21,Corporate,6
22,Health & Wellbeing,7
23,Ambulance,8
24,Environmental Health,7
25,Health Business Services,6
29,PCRS,9
30,Unallocated,0