;ORG_NO,SURVEY_ID,START_DATE,STOP_DATE
0,STAFFCEN,,
10,STAFFCEN,,
12,STAFFCEN,20031020,
17,STAFFCEN,20031020,
18,STAFFCEN,,20031019
19,STAFFCEN,,
20,STAFFCEN,,
22,STAFFCEN,,
23,STAFFCEN,,
25,STAFFCEN,,
26,STAFFCEN,,
27,STAFFCEN,,
28,STAFFCEN,,
29,STAFFCEN,,
30,STAFFCEN,20070331,
31,STAFFCEN,,
32,STAFFCEN,,
33,STAFFCEN,,
38,STAFFCEN,,
41,STAFFCEN,,
43,STAFFCEN,,
44,STAFFCEN,,
46,STAFFCEN,,
49,STAFFCEN,,
50,STAFFCEN,,
52,STAFFCEN,,
53,STAFFCEN,,
54,STAFFCEN,,
55,STAFFCEN,,
56,STAFFCEN,,
57,STAFFCEN,,
58,STAFFCEN,,
101,IP,,
101,WAITLIST,,
102,IP,,
102,WAITLIST,,
106,IP,,20030101
108,IP,,
108,WAITLIST,,
109,WAITLIST,,
161,WAITLIST,,
168,WAITLIST,,
201,IP,,
201,WAITLIST,,
202,IP,,
202,WAITLIST,,
203,IP,,
203,WAITLIST,,
209,IP,19970601,
209,WAITLIST,19970601,
300,IP,,
300,WAITLIST,,
301,IP,,
302,IP,,
302,WAITLIST,,
304,IP,,
304,WAITLIST,,
305,IP,,
305,WAITLIST,,
400,IP,,
400,WAITLIST,,
402,IP,,
402,WAITLIST,,
403,IP,,
403,WAITLIST,,
404,IP,,
404,WAITLIST,,
500,IP,,
500,WAITLIST,,
501,IP,,
501,WAITLIST,,
502,IP,,
600,IP,,
600,WAITLIST,,
601,IP,,
601,WAITLIST,,
602,IP,,
602,WAITLIST,,
605,IP,,
605,WAITLIST,,
607,IP,,
607,WAITLIST,,
608,IP,,
608,WAITLIST,,
701,IP,,
701,WAITLIST,,
703,IP,,
703,WAITLIST,,
704,IP,,
705,IP,,
724,IP,,
724,WAITLIST,,
725,IP,,
726,IP,,
726,WAITLIST,,
800,IP,,
800,WAITLIST,,
801,IP,,
801,WAITLIST,,
802,IP,,
802,WAITLIST,,
803,IP,,
803,WAITLIST,,
809,IP,20010101,
900,STAFFCEN,,
901,FINSUMM,,
901,IP,,19980531
901,WAITLIST,,
903,FINSUMM,,
903,IP,,19980531
903,STAFFCEN,,
903,WAITLIST,,
904,FINSUMM,,
904,IP,,
904,STAFFCEN,,
904,WAITLIST,,
908,FINSUMM,,
908,IP,,
908,STAFFCEN,,
908,WAITLIST,,
910,FINSUMM,,
910,IP,,
910,STAFFCEN,,
910,WAITLIST,,
912,FINSUMM,,
912,IP,,
912,STAFFCEN,,
912,WAITLIST,,
913,FINSUMM,,
913,IP,,
913,STAFFCEN,,
913,WAITLIST,,
915,FINSUMM,,
915,IP,,
915,STAFFCEN,,
915,WAITLIST,,
916,FINSUMM,,
918,FINSUMM,,
918,IP,,
918,STAFFCEN,,
918,WAITLIST,,
919,FINSUMM,,
919,IP,,20011231
919,STAFFCEN,,
919,WAITLIST,,
922,FINSUMM,,
922,IP,,19970531
922,STAFFCEN,,
922,WAITLIST,,19970531
923,FINSUMM,,
923,IP,,
923,STAFFCEN,,
923,WAITLIST,,
924,STAFFCEN,,
925,IP,,
925,STAFFCEN,,
928,STAFFCEN,,
930,FINSUMM,,
930,IP,,
930,STAFFCEN,,
930,WAITLIST,,
931,FINSUMM,,
931,IP,,
931,STAFFCEN,,
931,WAITLIST,,
932,FINSUMM,,
932,IP,,
932,STAFFCEN,,
932,WAITLIST,,
934,FINSUMM,,
934,STAFFCEN,,
934,WAITLIST,,
940,FINSUMM,,
940,IP,,
940,STAFFCEN,,
940,WAITLIST,,
941,FINSUMM,,
941,IP,,
941,STAFFCEN,,
941,WAITLIST,,
943,FINSUMM,,
943,IP,,19980531
943,STAFFCEN,,
943,WAITLIST,,
946,FINSUMM,,
946,IP,,
946,STAFFCEN,,
946,WAITLIST,,
947,FINSUMM,,
947,IP,,
947,STAFFCEN,,
947,WAITLIST,,
950,FINSUMM,,
950,IP,,
950,STAFFCEN,,
950,WAITLIST,,
954,FINSUMM,,
954,IP,,
954,STAFFCEN,,
955,FINSUMM,,
955,IP,,
955,STAFFCEN,,
955,WAITLIST,,
956,FINSUMM,,
956,IP,,
956,STAFFCEN,,
960,FINSUMM,,
960,IP,,
960,STAFFCEN,,
960,WAITLIST,,
965,STAFFCEN,,
966,STAFFCEN,,
970,STAFFCEN,,
976,STAFFCEN,,
977,STAFFCEN,,
978,STAFFCEN,,
979,STAFFCEN,,
981,STAFFCEN,,
982,STAFFCEN,,
983,STAFFCEN,,
984,STAFFCEN,,
985,STAFFCEN,,
986,STAFFCEN,,
987,STAFFCEN,,
988,STAFFCEN,,
990,STAFFCEN,,
992,STAFFCEN,,
993,STAFFCEN,,
995,STAFFCEN,,
996,STAFFCEN,,
997,STAFFCEN,,
998,STAFFCEN,,
999,STAFFCEN,,
1000,STAFFCEN,,
1001,STAFFCEN,20060101,
1002,STAFFCEN,20050101,
1003,STAFFCEN,20050101,
1004,STAFFCEN,20050101,
1005,STAFFCEN,20050101,
1006,STAFFCEN,20050101,
1041,STAFFCEN,,
1047,STAFFCEN,,
1049,IP,19980601,
1049,STAFFCEN,,
1049,WAITLIST,,
1050,STAFFCEN,,
1051,STAFFCEN,,
1052,STAFFCEN,,
1053,FINSUMM,,
1053,STAFFCEN,,
1054,FINSUMM,,
1054,STAFFCEN,,
1055,FINSUMM,,
1055,STAFFCEN,,
1056,FINSUMM,,
1056,STAFFCEN,,
1057,FINSUMM,,
1057,STAFFCEN,,
1058,FINSUMM,,
1058,STAFFCEN,,
1059,FINSUMM,,
1059,STAFFCEN,,
1101,FINSUMM,,
1101,STAFFCEN,,
1102,FINSUMM,,
1102,STAFFCEN,,
1103,FINSUMM,,
1103,STAFFCEN,,
1259,STAFFCEN,,
1263,STAFFCEN,,
1292,STAFFCEN,,
1293,STAFFCEN,,
1294,STAFFCEN,,
1299,STAFFCEN,,
1300,STAFFCEN,,
1315,STAFFCEN,20060101,
1365,STAFFCEN,,
1366,STAFFCEN,,
1375,STAFFCEN,,
1501,STAFFCEN,,
1502,STAFFCEN,,
1506,STAFFCEN,,
1750,STAFFCEN,,
1757,STAFFCEN,,
1758,STAFFCEN,,
1759,STAFFCEN,,
1760,STAFFCEN,,
1762,IP,20050801,
1765,STAFFCEN,,
1766,STAFFCEN,20031020,
1767,STAFFCEN,20031020,
1768,STAFFCEN,20060630,
2892,STAFFCEN,20070331,
8148,STAFFCEN,20070331,
9082,STAFFCEN,20120331,
9231,STAFFCEN,,
9232,STAFFCEN,,
9233,STAFFCEN,,
9400,STAFFCEN,,