;STAFF_GROUP_NO,STAFF_GROUP_DESC
0,n.a.
1,Consultants
2,NCHDs
3,Medical (other) & Dental
4,Nurse Manager
5,Nurse Specialist
6,Staff Nurse
7,Nursing Student
8,Public Health Nurse
9,Nursing (other)
10,"Therapists (OT, Physio, SLT)"
11,Health Professionals (other)
12,Management (VIII+)
13,Clerical & Supervisory (III to VII)
14,Ambulance
15,Care
16,Support
17,Home Help